"Country or Area","Year","Area","Sex","Age","Record Type","Reliability","Source Year","Value","Value Footnotes"
"Spain","2018","Total","Male","Total","Estimate - de jure","Final figure, complete","2019","22881882","1"
"Spain","2018","Total","Male","0","Estimate - de jure","Final figure, complete","2019","202087","1"
"Spain","2018","Total","Male","0 - 4","Estimate - de jure","Final figure, complete","2019","1084401","1"
"Spain","2018","Total","Male","1","Estimate - de jure","Final figure, complete","2019","213645","1"
"Spain","2018","Total","Male","1 - 4","Estimate - de jure","Final figure, complete","2019","882314","1"
"Spain","2018","Total","Male","2","Estimate - de jure","Final figure, complete","2019","220675","1"
"Spain","2018","Total","Male","3","Estimate - de jure","Final figure, complete","2019","225090","1"
"Spain","2018","Total","Male","4","Estimate - de jure","Final figure, complete","2019","222904","1"
"Spain","2018","Total","Male","5","Estimate - de jure","Final figure, complete","2019","236080","1"
"Spain","2018","Total","Male","5 - 9","Estimate - de jure","Final figure, complete","2019","1250866","1"
"Spain","2018","Total","Male","6","Estimate - de jure","Final figure, complete","2019","245458","1"
"Spain","2018","Total","Male","7","Estimate - de jure","Final figure, complete","2019","247867","1"
"Spain","2018","Total","Male","8","Estimate - de jure","Final figure, complete","2019","253955","1"
"Spain","2018","Total","Male","9","Estimate - de jure","Final figure, complete","2019","267506","1"
"Spain","2018","Total","Male","10","Estimate - de jure","Final figure, complete","2019","258572","1"
"Spain","2018","Total","Male","10 - 14","Estimate - de jure","Final figure, complete","2019","1261152","1"
"Spain","2018","Total","Male","11","Estimate - de jure","Final figure, complete","2019","257183","1"
"Spain","2018","Total","Male","12","Estimate - de jure","Final figure, complete","2019","251280","1"
"Spain","2018","Total","Male","13","Estimate - de jure","Final figure, complete","2019","249593","1"
"Spain","2018","Total","Male","14","Estimate - de jure","Final figure, complete","2019","244524","1"
"Spain","2018","Total","Male","15","Estimate - de jure","Final figure, complete","2019","236422","1"
"Spain","2018","Total","Male","15 - 19","Estimate - de jure","Final figure, complete","2019","1167453","1"
"Spain","2018","Total","Male","16","Estimate - de jure","Final figure, complete","2019","234776","1"
"Spain","2018","Total","Male","17","Estimate - de jure","Final figure, complete","2019","236708","1"
"Spain","2018","Total","Male","18","Estimate - de jure","Final figure, complete","2019","231707","1"
"Spain","2018","Total","Male","19","Estimate - de jure","Final figure, complete","2019","227840","1"
"Spain","2018","Total","Male","20","Estimate - de jure","Final figure, complete","2019","228570","1"
"Spain","2018","Total","Male","20 - 24","Estimate - de jure","Final figure, complete","2019","1153467","1"
"Spain","2018","Total","Male","21","Estimate - de jure","Final figure, complete","2019","226648","1"
"Spain","2018","Total","Male","22","Estimate - de jure","Final figure, complete","2019","227578","1"
"Spain","2018","Total","Male","23","Estimate - de jure","Final figure, complete","2019","230900","1"
"Spain","2018","Total","Male","24","Estimate - de jure","Final figure, complete","2019","239771","1"
"Spain","2018","Total","Male","25","Estimate - de jure","Final figure, complete","2019","248012","1"
"Spain","2018","Total","Male","25 - 29","Estimate - de jure","Final figure, complete","2019","1264328","1"
"Spain","2018","Total","Male","26","Estimate - de jure","Final figure, complete","2019","248147","1"
"Spain","2018","Total","Male","27","Estimate - de jure","Final figure, complete","2019","251199","1"
"Spain","2018","Total","Male","28","Estimate - de jure","Final figure, complete","2019","256269","1"
"Spain","2018","Total","Male","29","Estimate - de jure","Final figure, complete","2019","260701","1"
"Spain","2018","Total","Male","30","Estimate - de jure","Final figure, complete","2019","264985","1"
"Spain","2018","Total","Male","30 - 34","Estimate - de jure","Final figure, complete","2019","1420073","1"
"Spain","2018","Total","Male","31","Estimate - de jure","Final figure, complete","2019","271923","1"
"Spain","2018","Total","Male","32","Estimate - de jure","Final figure, complete","2019","282784","1"
"Spain","2018","Total","Male","33","Estimate - de jure","Final figure, complete","2019","294709","1"
"Spain","2018","Total","Male","34","Estimate - de jure","Final figure, complete","2019","305672","1"
"Spain","2018","Total","Male","35","Estimate - de jure","Final figure, complete","2019","325406","1"
"Spain","2018","Total","Male","35 - 39","Estimate - de jure","Final figure, complete","2019","1795555","1"
"Spain","2018","Total","Male","36","Estimate - de jure","Final figure, complete","2019","342562","1"
"Spain","2018","Total","Male","37","Estimate - de jure","Final figure, complete","2019","360758","1"
"Spain","2018","Total","Male","38","Estimate - de jure","Final figure, complete","2019","373471","1"
"Spain","2018","Total","Male","39","Estimate - de jure","Final figure, complete","2019","393358","1"
"Spain","2018","Total","Male","40","Estimate - de jure","Final figure, complete","2019","401571","1"
"Spain","2018","Total","Male","40 - 44","Estimate - de jure","Final figure, complete","2019","2014901","1"
"Spain","2018","Total","Male","41","Estimate - de jure","Final figure, complete","2019","408590","1"
"Spain","2018","Total","Male","42","Estimate - de jure","Final figure, complete","2019","407089","1"
"Spain","2018","Total","Male","43","Estimate - de jure","Final figure, complete","2019","403348","1"
"Spain","2018","Total","Male","44","Estimate - de jure","Final figure, complete","2019","394303","1"
"Spain","2018","Total","Male","45","Estimate - de jure","Final figure, complete","2019","392552","1"
"Spain","2018","Total","Male","45 - 49","Estimate - de jure","Final figure, complete","2019","1902769","1"
"Spain","2018","Total","Male","46","Estimate - de jure","Final figure, complete","2019","385380","1"
"Spain","2018","Total","Male","47","Estimate - de jure","Final figure, complete","2019","379480","1"
"Spain","2018","Total","Male","48","Estimate - de jure","Final figure, complete","2019","374683","1"
"Spain","2018","Total","Male","49","Estimate - de jure","Final figure, complete","2019","370674","1"
"Spain","2018","Total","Male","50","Estimate - de jure","Final figure, complete","2019","371322","1"
"Spain","2018","Total","Male","50 - 54","Estimate - de jure","Final figure, complete","2019","1791837","1"
"Spain","2018","Total","Male","51","Estimate - de jure","Final figure, complete","2019","361748","1"
"Spain","2018","Total","Male","52","Estimate - de jure","Final figure, complete","2019","356530","1"
"Spain","2018","Total","Male","53","Estimate - de jure","Final figure, complete","2019","360050","1"
"Spain","2018","Total","Male","54","Estimate - de jure","Final figure, complete","2019","342187","1"
"Spain","2018","Total","Male","55","Estimate - de jure","Final figure, complete","2019","328574","1"
"Spain","2018","Total","Male","55 - 59","Estimate - de jure","Final figure, complete","2019","1578213","1"
"Spain","2018","Total","Male","56","Estimate - de jure","Final figure, complete","2019","319404","1"
"Spain","2018","Total","Male","57","Estimate - de jure","Final figure, complete","2019","319857","1"
"Spain","2018","Total","Male","58","Estimate - de jure","Final figure, complete","2019","309467","1"
"Spain","2018","Total","Male","59","Estimate - de jure","Final figure, complete","2019","300911","1"
"Spain","2018","Total","Male","60","Estimate - de jure","Final figure, complete","2019","291801","1"
"Spain","2018","Total","Male","60 - 64","Estimate - de jure","Final figure, complete","2019","1316834","1"
"Spain","2018","Total","Male","61","Estimate - de jure","Final figure, complete","2019","270776","1"
"Spain","2018","Total","Male","62","Estimate - de jure","Final figure, complete","2019","261190","1"
"Spain","2018","Total","Male","63","Estimate - de jure","Final figure, complete","2019","246902","1"
"Spain","2018","Total","Male","64","Estimate - de jure","Final figure, complete","2019","246165","1"
"Spain","2018","Total","Male","65","Estimate - de jure","Final figure, complete","2019","244559","1"
"Spain","2018","Total","Male","65 - 69","Estimate - de jure","Final figure, complete","2019","1147212","1"
"Spain","2018","Total","Male","66","Estimate - de jure","Final figure, complete","2019","226396","1"
"Spain","2018","Total","Male","67","Estimate - de jure","Final figure, complete","2019","219361","1"
"Spain","2018","Total","Male","68","Estimate - de jure","Final figure, complete","2019","224324","1"
"Spain","2018","Total","Male","69","Estimate - de jure","Final figure, complete","2019","232572","1"
"Spain","2018","Total","Male","70","Estimate - de jure","Final figure, complete","2019","210248","1"
"Spain","2018","Total","Male","70 - 74","Estimate - de jure","Final figure, complete","2019","983119","1"
"Spain","2018","Total","Male","71","Estimate - de jure","Final figure, complete","2019","197015","1"
"Spain","2018","Total","Male","72","Estimate - de jure","Final figure, complete","2019","202834","1"
"Spain","2018","Total","Male","73","Estimate - de jure","Final figure, complete","2019","189869","1"
"Spain","2018","Total","Male","74","Estimate - de jure","Final figure, complete","2019","183153","1"
"Spain","2018","Total","Male","75","Estimate - de jure","Final figure, complete","2019","155237","1"
"Spain","2018","Total","Male","75 - 79","Estimate - de jure","Final figure, complete","2019","679146","1"
"Spain","2018","Total","Male","76","Estimate - de jure","Final figure, complete","2019","139449","1"
"Spain","2018","Total","Male","77","Estimate - de jure","Final figure, complete","2019","165235","1"
"Spain","2018","Total","Male","78","Estimate - de jure","Final figure, complete","2019","104547","1"
"Spain","2018","Total","Male","79","Estimate - de jure","Final figure, complete","2019","114678","1"
"Spain","2018","Total","Male","80","Estimate - de jure","Final figure, complete","2019","122878","1"
"Spain","2018","Total","Male","80 - 84","Estimate - de jure","Final figure, complete","2019","576201","1"
"Spain","2018","Total","Male","81","Estimate - de jure","Final figure, complete","2019","126373","1"
"Spain","2018","Total","Male","82","Estimate - de jure","Final figure, complete","2019","116890","1"
"Spain","2018","Total","Male","83","Estimate - de jure","Final figure, complete","2019","108045","1"
"Spain","2018","Total","Male","84","Estimate - de jure","Final figure, complete","2019","102015","1"
"Spain","2018","Total","Male","85","Estimate - de jure","Final figure, complete","2019","92237","1"
"Spain","2018","Total","Male","85 - 89","Estimate - de jure","Final figure, complete","2019","345121","1"
"Spain","2018","Total","Male","86","Estimate - de jure","Final figure, complete","2019","79161","1"
"Spain","2018","Total","Male","87","Estimate - de jure","Final figure, complete","2019","69031","1"
"Spain","2018","Total","Male","88","Estimate - de jure","Final figure, complete","2019","56971","1"
"Spain","2018","Total","Male","89","Estimate - de jure","Final figure, complete","2019","47721","1"
"Spain","2018","Total","Male","90","Estimate - de jure","Final figure, complete","2019","37340","1"
"Spain","2018","Total","Male","90 - 94","Estimate - de jure","Final figure, complete","2019","122286","1"
"Spain","2018","Total","Male","91","Estimate - de jure","Final figure, complete","2019","30555","1"
"Spain","2018","Total","Male","92","Estimate - de jure","Final figure, complete","2019","23263","1"
"Spain","2018","Total","Male","93","Estimate - de jure","Final figure, complete","2019","17731","1"
"Spain","2018","Total","Male","94","Estimate - de jure","Final figure, complete","2019","13397","1"
"Spain","2018","Total","Male","95","Estimate - de jure","Final figure, complete","2019","9547","1"
"Spain","2018","Total","Male","95 - 99","Estimate - de jure","Final figure, complete","2019","24994","1"
"Spain","2018","Total","Male","96","Estimate - de jure","Final figure, complete","2019","6538","1"
"Spain","2018","Total","Male","97","Estimate - de jure","Final figure, complete","2019","4361","1"
"Spain","2018","Total","Male","98","Estimate - de jure","Final figure, complete","2019","2736","1"
"Spain","2018","Total","Male","99","Estimate - de jure","Final figure, complete","2019","1812","1"
"Spain","2018","Total","Male","100 +","Estimate - de jure","Final figure, complete","2019","1954","1"
"Spain","2018","Total","Female","Total","Estimate - de jure","Final figure, complete","2019","23776565","1"
"Spain","2018","Total","Female","0","Estimate - de jure","Final figure, complete","2019","190476","1"
"Spain","2018","Total","Female","0 - 4","Estimate - de jure","Final figure, complete","2019","1021825","1"
"Spain","2018","Total","Female","1","Estimate - de jure","Final figure, complete","2019","202147","1"
"Spain","2018","Total","Female","1 - 4","Estimate - de jure","Final figure, complete","2019","831349","1"
"Spain","2018","Total","Female","2","Estimate - de jure","Final figure, complete","2019","207897","1"
"Spain","2018","Total","Female","3","Estimate - de jure","Final figure, complete","2019","211157","1"
"Spain","2018","Total","Female","4","Estimate - de jure","Final figure, complete","2019","210148","1"
"Spain","2018","Total","Female","5","Estimate - de jure","Final figure, complete","2019","221884","1"
"Spain","2018","Total","Female","5 - 9","Estimate - de jure","Final figure, complete","2019","1173107","1"
"Spain","2018","Total","Female","6","Estimate - de jure","Final figure, complete","2019","230457","1"
"Spain","2018","Total","Female","7","Estimate - de jure","Final figure, complete","2019","232880","1"
"Spain","2018","Total","Female","8","Estimate - de jure","Final figure, complete","2019","237416","1"
"Spain","2018","Total","Female","9","Estimate - de jure","Final figure, complete","2019","250470","1"
"Spain","2018","Total","Female","10","Estimate - de jure","Final figure, complete","2019","242352","1"
"Spain","2018","Total","Female","10 - 14","Estimate - de jure","Final figure, complete","2019","1187213","1"
"Spain","2018","Total","Female","11","Estimate - de jure","Final figure, complete","2019","241038","1"
"Spain","2018","Total","Female","12","Estimate - de jure","Final figure, complete","2019","237508","1"
"Spain","2018","Total","Female","13","Estimate - de jure","Final figure, complete","2019","234472","1"
"Spain","2018","Total","Female","14","Estimate - de jure","Final figure, complete","2019","231843","1"
"Spain","2018","Total","Female","15","Estimate - de jure","Final figure, complete","2019","222757","1"
"Spain","2018","Total","Female","15 - 19","Estimate - de jure","Final figure, complete","2019","1096393","1"
"Spain","2018","Total","Female","16","Estimate - de jure","Final figure, complete","2019","222281","1"
"Spain","2018","Total","Female","17","Estimate - de jure","Final figure, complete","2019","220463","1"
"Spain","2018","Total","Female","18","Estimate - de jure","Final figure, complete","2019","218351","1"
"Spain","2018","Total","Female","19","Estimate - de jure","Final figure, complete","2019","212541","1"
"Spain","2018","Total","Female","20","Estimate - de jure","Final figure, complete","2019","217460","1"
"Spain","2018","Total","Female","20 - 24","Estimate - de jure","Final figure, complete","2019","1108013","1"
"Spain","2018","Total","Female","21","Estimate - de jure","Final figure, complete","2019","217647","1"
"Spain","2018","Total","Female","22","Estimate - de jure","Final figure, complete","2019","217672","1"
"Spain","2018","Total","Female","23","Estimate - de jure","Final figure, complete","2019","222368","1"
"Spain","2018","Total","Female","24","Estimate - de jure","Final figure, complete","2019","232866","1"
"Spain","2018","Total","Female","25","Estimate - de jure","Final figure, complete","2019","242275","1"
"Spain","2018","Total","Female","25 - 29","Estimate - de jure","Final figure, complete","2019","1248016","1"
"Spain","2018","Total","Female","26","Estimate - de jure","Final figure, complete","2019","242539","1"
"Spain","2018","Total","Female","27","Estimate - de jure","Final figure, complete","2019","248411","1"
"Spain","2018","Total","Female","28","Estimate - de jure","Final figure, complete","2019","254130","1"
"Spain","2018","Total","Female","29","Estimate - de jure","Final figure, complete","2019","260661","1"
"Spain","2018","Total","Female","30","Estimate - de jure","Final figure, complete","2019","266513","1"
"Spain","2018","Total","Female","30 - 34","Estimate - de jure","Final figure, complete","2019","1433338","1"
"Spain","2018","Total","Female","31","Estimate - de jure","Final figure, complete","2019","275476","1"
"Spain","2018","Total","Female","32","Estimate - de jure","Final figure, complete","2019","285189","1"
"Spain","2018","Total","Female","33","Estimate - de jure","Final figure, complete","2019","297756","1"
"Spain","2018","Total","Female","34","Estimate - de jure","Final figure, complete","2019","308404","1"
"Spain","2018","Total","Female","35","Estimate - de jure","Final figure, complete","2019","326778","1"
"Spain","2018","Total","Female","35 - 39","Estimate - de jure","Final figure, complete","2019","1782153","1"
"Spain","2018","Total","Female","36","Estimate - de jure","Final figure, complete","2019","341353","1"
"Spain","2018","Total","Female","37","Estimate - de jure","Final figure, complete","2019","358725","1"
"Spain","2018","Total","Female","38","Estimate - de jure","Final figure, complete","2019","369592","1"
"Spain","2018","Total","Female","39","Estimate - de jure","Final figure, complete","2019","385705","1"
"Spain","2018","Total","Female","40","Estimate - de jure","Final figure, complete","2019","389820","1"
"Spain","2018","Total","Female","40 - 44","Estimate - de jure","Final figure, complete","2019","1957725","1"
"Spain","2018","Total","Female","41","Estimate - de jure","Final figure, complete","2019","398114","1"
"Spain","2018","Total","Female","42","Estimate - de jure","Final figure, complete","2019","394279","1"
"Spain","2018","Total","Female","43","Estimate - de jure","Final figure, complete","2019","392869","1"
"Spain","2018","Total","Female","44","Estimate - de jure","Final figure, complete","2019","382643","1"
"Spain","2018","Total","Female","45","Estimate - de jure","Final figure, complete","2019","381275","1"
"Spain","2018","Total","Female","45 - 49","Estimate - de jure","Final figure, complete","2019","1865086","1"
"Spain","2018","Total","Female","46","Estimate - de jure","Final figure, complete","2019","376443","1"
"Spain","2018","Total","Female","47","Estimate - de jure","Final figure, complete","2019","371677","1"
"Spain","2018","Total","Female","48","Estimate - de jure","Final figure, complete","2019","369071","1"
"Spain","2018","Total","Female","49","Estimate - de jure","Final figure, complete","2019","366620","1"
"Spain","2018","Total","Female","50","Estimate - de jure","Final figure, complete","2019","369875","1"
"Spain","2018","Total","Female","50 - 54","Estimate - de jure","Final figure, complete","2019","1800272","1"
"Spain","2018","Total","Female","51","Estimate - de jure","Final figure, complete","2019","360657","1"
"Spain","2018","Total","Female","52","Estimate - de jure","Final figure, complete","2019","359566","1"
"Spain","2018","Total","Female","53","Estimate - de jure","Final figure, complete","2019","363963","1"
"Spain","2018","Total","Female","54","Estimate - de jure","Final figure, complete","2019","346211","1"
"Spain","2018","Total","Female","55","Estimate - de jure","Final figure, complete","2019","335759","1"
"Spain","2018","Total","Female","55 - 59","Estimate - de jure","Final figure, complete","2019","1626958","1"
"Spain","2018","Total","Female","56","Estimate - de jure","Final figure, complete","2019","328187","1"
"Spain","2018","Total","Female","57","Estimate - de jure","Final figure, complete","2019","329533","1"
"Spain","2018","Total","Female","58","Estimate - de jure","Final figure, complete","2019","320301","1"
"Spain","2018","Total","Female","59","Estimate - de jure","Final figure, complete","2019","313178","1"
"Spain","2018","Total","Female","60","Estimate - de jure","Final figure, complete","2019","305835","1"
"Spain","2018","Total","Female","60 - 64","Estimate - de jure","Final figure, complete","2019","1397005","1"
"Spain","2018","Total","Female","61","Estimate - de jure","Final figure, complete","2019","285597","1"
"Spain","2018","Total","Female","62","Estimate - de jure","Final figure, complete","2019","276837","1"
"Spain","2018","Total","Female","63","Estimate - de jure","Final figure, complete","2019","264843","1"
"Spain","2018","Total","Female","64","Estimate - de jure","Final figure, complete","2019","263893","1"
"Spain","2018","Total","Female","65","Estimate - de jure","Final figure, complete","2019","261586","1"
"Spain","2018","Total","Female","65 - 69","Estimate - de jure","Final figure, complete","2019","1258919","1"
"Spain","2018","Total","Female","66","Estimate - de jure","Final figure, complete","2019","245792","1"
"Spain","2018","Total","Female","67","Estimate - de jure","Final figure, complete","2019","240329","1"
"Spain","2018","Total","Female","68","Estimate - de jure","Final figure, complete","2019","250446","1"
"Spain","2018","Total","Female","69","Estimate - de jure","Final figure, complete","2019","260766","1"
"Spain","2018","Total","Female","70","Estimate - de jure","Final figure, complete","2019","237638","1"
"Spain","2018","Total","Female","70 - 74","Estimate - de jure","Final figure, complete","2019","1143525","1"
"Spain","2018","Total","Female","71","Estimate - de jure","Final figure, complete","2019","227310","1"
"Spain","2018","Total","Female","72","Estimate - de jure","Final figure, complete","2019","236467","1"
"Spain","2018","Total","Female","73","Estimate - de jure","Final figure, complete","2019","223607","1"
"Spain","2018","Total","Female","74","Estimate - de jure","Final figure, complete","2019","218503","1"
"Spain","2018","Total","Female","75","Estimate - de jure","Final figure, complete","2019","187041","1"
"Spain","2018","Total","Female","75 - 79","Estimate - de jure","Final figure, complete","2019","859458","1"
"Spain","2018","Total","Female","76","Estimate - de jure","Final figure, complete","2019","170956","1"
"Spain","2018","Total","Female","77","Estimate - de jure","Final figure, complete","2019","208536","1"
"Spain","2018","Total","Female","78","Estimate - de jure","Final figure, complete","2019","138747","1"
"Spain","2018","Total","Female","79","Estimate - de jure","Final figure, complete","2019","154178","1"
"Spain","2018","Total","Female","80","Estimate - de jure","Final figure, complete","2019","169635","1"
"Spain","2018","Total","Female","80 - 84","Estimate - de jure","Final figure, complete","2019","846440","1"
"Spain","2018","Total","Female","81","Estimate - de jure","Final figure, complete","2019","182958","1"
"Spain","2018","Total","Female","82","Estimate - de jure","Final figure, complete","2019","170614","1"
"Spain","2018","Total","Female","83","Estimate - de jure","Final figure, complete","2019","163290","1"
"Spain","2018","Total","Female","84","Estimate - de jure","Final figure, complete","2019","159943","1"
"Spain","2018","Total","Female","85","Estimate - de jure","Final figure, complete","2019","149763","1"
"Spain","2018","Total","Female","85 - 89","Estimate - de jure","Final figure, complete","2019","608199","1"
"Spain","2018","Total","Female","86","Estimate - de jure","Final figure, complete","2019","132365","1"
"Spain","2018","Total","Female","87","Estimate - de jure","Final figure, complete","2019","124546","1"
"Spain","2018","Total","Female","88","Estimate - de jure","Final figure, complete","2019","106705","1"
"Spain","2018","Total","Female","89","Estimate - de jure","Final figure, complete","2019","94820","1"
"Spain","2018","Total","Female","90","Estimate - de jure","Final figure, complete","2019","77820","1"
"Spain","2018","Total","Female","90 - 94","Estimate - de jure","Final figure, complete","2019","278889","1"
"Spain","2018","Total","Female","91","Estimate - de jure","Final figure, complete","2019","67408","1"
"Spain","2018","Total","Female","92","Estimate - de jure","Final figure, complete","2019","54548","1"
"Spain","2018","Total","Female","93","Estimate - de jure","Final figure, complete","2019","44594","1"
"Spain","2018","Total","Female","94","Estimate - de jure","Final figure, complete","2019","34519","1"
"Spain","2018","Total","Female","95","Estimate - de jure","Final figure, complete","2019","27109","1"
"Spain","2018","Total","Female","95 - 99","Estimate - de jure","Final figure, complete","2019","74757","1"
"Spain","2018","Total","Female","96","Estimate - de jure","Final figure, complete","2019","18957","1"
"Spain","2018","Total","Female","97","Estimate - de jure","Final figure, complete","2019","13511","1"
"Spain","2018","Total","Female","98","Estimate - de jure","Final figure, complete","2019","8854","1"
"Spain","2018","Total","Female","99","Estimate - de jure","Final figure, complete","2019","6326","1"
"Spain","2018","Total","Female","100 +","Estimate - de jure","Final figure, complete","2019","9274","1"

"footnoteSeqID","Footnote"
"1","Data refer to registered resident population."
